<?xml version="1.0" encoding="UTF-8" standalone="no"?>
<!-- Created with Inkscape (http://www.inkscape.org/) -->

<svg
   width="449.79169mm"
   height="124.30983mm"
   viewBox="0 0 449.79169 124.30983"
   version="1.1"
   id="svg1"
   inkscape:version="1.3.2 (091e20e, 2023-11-25)"
   sodipodi:docname="sample-prep-antra.svg"
   xmlns:inkscape="http://www.inkscape.org/namespaces/inkscape"
   xmlns:sodipodi="http://sodipodi.sourceforge.net/DTD/sodipodi-0.dtd"
   xmlns:xlink="http://www.w3.org/1999/xlink"
   xmlns="http://www.w3.org/2000/svg"
   xmlns:svg="http://www.w3.org/2000/svg">
  <sodipodi:namedview
     id="namedview1"
     pagecolor="#505050"
     bordercolor="#eeeeee"
     borderopacity="1"
     inkscape:showpageshadow="0"
     inkscape:pageopacity="0"
     inkscape:pagecheckerboard="0"
     inkscape:deskcolor="#505050"
     inkscape:document-units="mm"
     inkscape:zoom="1.1818694"
     inkscape:cx="291.48737"
     inkscape:cy="83.342543"
     inkscape:window-width="1680"
     inkscape:window-height="1022"
     inkscape:window-x="0"
     inkscape:window-y="28"
     inkscape:window-maximized="0"
     inkscape:current-layer="layer1" />
  <defs
     id="defs1">
    <marker
       style="overflow:visible"
       id="Triangle"
       refX="0"
       refY="0"
       orient="auto-start-reverse"
       inkscape:stockid="Triangle arrow"
       markerWidth="1"
       markerHeight="1"
       viewBox="0 0 1 1"
       inkscape:isstock="true"
       inkscape:collect="always"
       preserveAspectRatio="xMidYMid">
      <path
         transform="scale(0.5)"
         style="fill:context-stroke;fill-rule:evenodd;stroke:context-stroke;stroke-width:1pt"
         d="M 5.77,0 -2.88,5 V -5 Z"
         id="path135" />
    </marker>
    <linearGradient
       inkscape:collect="always"
       xlink:href="#linearGradient1"
       id="linearGradient2"
       x1="98.973648"
       y1="109.11665"
       x2="98.973648"
       y2="142.22929"
       gradientUnits="userSpaceOnUse"
       gradientTransform="translate(-32.436858,-39.613617)" />
    <linearGradient
       id="linearGradient1"
       inkscape:collect="always">
      <stop
         style="stop-color:#6a4c93;stop-opacity:0.8509804;"
         offset="0"
         id="stop1" />
      <stop
         style="stop-color:#8e2fe7;stop-opacity:0.1;"
         offset="1"
         id="stop2" />
    </linearGradient>
    <linearGradient
       inkscape:collect="always"
       xlink:href="#linearGradient1"
       id="linearGradient3"
       gradientUnits="userSpaceOnUse"
       gradientTransform="translate(126.31316,-39.613617)"
       x1="98.973648"
       y1="109.11665"
       x2="98.973648"
       y2="142.22929" />
    <marker
       style="overflow:visible"
       id="Triangle-7"
       refX="0"
       refY="0"
       orient="auto-start-reverse"
       inkscape:stockid="Triangle arrow"
       markerWidth="1"
       markerHeight="1"
       viewBox="0 0 1 1"
       inkscape:isstock="true"
       inkscape:collect="always"
       preserveAspectRatio="xMidYMid">
      <path
         transform="scale(0.5)"
         style="fill:context-stroke;fill-rule:evenodd;stroke:context-stroke;stroke-width:1pt"
         d="M 5.77,0 -2.88,5 V -5 Z"
         id="path135-3" />
    </marker>
    <linearGradient
       inkscape:collect="always"
       xlink:href="#linearGradient1"
       id="linearGradient4"
       gradientUnits="userSpaceOnUse"
       gradientTransform="translate(285.06317,-39.613618)"
       x1="98.973648"
       y1="109.11665"
       x2="98.973648"
       y2="142.22929" />
  </defs>
  <g
     inkscape:label="Layer 1"
     inkscape:groupmode="layer"
     id="layer1"
     transform="translate(7.5903904e-7,21.714037)">
    <rect
       style="display:inline;fill:url(#linearGradient3);stroke:none;stroke-width:0.264999;stroke-opacity:0"
       id="rect1-5"
       width="132.29167"
       height="33.072918"
       x="158.75"
       y="69.522873"
       inkscape:label="sio2" />
    <rect
       style="display:inline;fill:url(#linearGradient2);stroke:none;stroke-width:0.264999;stroke-opacity:0"
       id="rect1"
       width="132.29167"
       height="33.072918"
       x="-7.5903904e-07"
       y="69.522873"
       inkscape:label="sio2" />
    <text
       xml:space="preserve"
       style="font-style:normal;font-weight:normal;font-size:8.46667px;line-height:1.25;font-family:sans-serif;display:inline;fill:#000000;fill-opacity:1;stroke:none;stroke-width:0.264583"
       x="51.112125"
       y="82.570145"
       id="text12"><tspan
         sodipodi:role="line"
         style="font-size:8.46667px;stroke-width:0.264583"
         x="51.112125"
         y="82.570145"
         id="tspan13">Si/SiO<tspan
   style="font-size:65%;baseline-shift:sub"
   id="tspan1">2</tspan></tspan></text>
    <text
       xml:space="preserve"
       style="font-style:normal;font-weight:normal;font-size:8.46667px;line-height:1.25;font-family:sans-serif;display:inline;fill:#000000;fill-opacity:1;stroke:none;stroke-width:0.264583"
       x="209.86214"
       y="82.570145"
       id="text12-4"><tspan
         sodipodi:role="line"
         style="font-size:8.46667px;stroke-width:0.264583"
         x="209.86214"
         y="82.570145"
         id="tspan13-4">Si/SiO<tspan
   style="font-size:65%;baseline-shift:sub"
   id="tspan3">2</tspan></tspan></text>
    <rect
       style="display:inline;fill:#1184cc;fill-opacity:0.631373;stroke:none;stroke-width:0.264999;stroke-opacity:0"
       id="rect2-3"
       width="105.83334"
       height="13.229167"
       x="171.97917"
       y="43.169979" />
    <rect
       style="display:inline;fill:#1184cc;fill-opacity:0.631373;stroke:none;stroke-width:0.264999;stroke-opacity:0"
       id="rect2-3-2"
       width="105.83334"
       height="13.229167"
       x="13.229162"
       y="19.84375" />
    <text
       xml:space="preserve"
       style="font-style:normal;font-weight:normal;font-size:8.46667px;line-height:1.25;font-family:sans-serif;display:inline;fill:#000000;fill-opacity:1;stroke:none;stroke-width:0.264583"
       x="213.28104"
       y="52.866547"
       id="text14-8"><tspan
         sodipodi:role="line"
         id="tspan14-2"
         style="font-size:8.46667px;stroke-width:0.264583"
         x="213.28104"
         y="52.866547">MoS<tspan
   style="font-size:65%;baseline-shift:sub"
   id="tspan2">2</tspan></tspan></text>
    <text
       xml:space="preserve"
       style="font-style:normal;font-weight:normal;font-size:8.46667px;line-height:1.25;font-family:sans-serif;display:inline;fill:#000000;fill-opacity:1;stroke:none;stroke-width:0.264583"
       x="54.531029"
       y="29.540318"
       id="text14-8-0"><tspan
         sodipodi:role="line"
         id="tspan14-2-6"
         style="font-size:8.46667px;stroke-width:0.264583"
         x="54.531029"
         y="29.540318">MoS<tspan
   style="font-size:65%;baseline-shift:sub"
   id="tspan2-4">2</tspan></tspan></text>
    <path
       id="rect5-2-1"
       style="display:inline;fill:#0e0a0a;fill-opacity:0.502164;stroke:none;stroke-width:0.264999;stroke-opacity:0"
       d="m 19.843754,63.013718 v 6.61458 h 13.22917 v -6.61458 z m 26.45833,0 v 6.61458 h 13.22917 v -6.61458 z m 26.45834,0 v 6.61458 h 13.22916 v -6.61458 z m 26.45833,0 v 6.61458 h 13.229166 v -6.61458 z" />
    <path
       id="rect6-6-5"
       style="display:inline;fill:#ffca3a;fill-opacity:0.980392;stroke:none;stroke-width:0.264999;stroke-opacity:0"
       d="m 19.843754,56.399128 v 6.61459 h 13.22917 v -6.61459 z m 26.45833,0 v 6.61459 h 13.22917 v -6.61459 z m 26.45834,0 v 6.61459 h 13.22916 v -6.61459 z m 26.45833,0 v 6.61459 h 13.229166 v -6.61459 z" />
    <text
       xml:space="preserve"
       style="font-style:normal;font-weight:normal;font-size:5.64444px;line-height:1.25;font-family:sans-serif;display:inline;fill:#000000;fill-opacity:1;stroke:none;stroke-width:0.264583"
       x="22.973291"
       y="61.723877"
       id="text15-4-6"><tspan
         sodipodi:role="line"
         id="tspan15-0-9"
         style="font-size:5.64444px;stroke-width:0.264583"
         x="22.973291"
         y="61.723877">Au</tspan></text>
    <path
       d="m 0,-21.714037 a 66.145836,40.923293 0 0 0 0.00103353,0.02268 A 66.145836,40.923293 0 0 0 18.684131,6.6909507 h 95.073779 a 66.145836,40.923293 0 0 0 18.53376,-28.4049877 z"
       style="display:inline;fill:#9ee3ed;fill-opacity:0.729084;stroke-width:0.31036;stroke-opacity:0"
       id="path27" />
    <text
       xml:space="preserve"
       style="font-style:normal;font-weight:normal;font-size:4.93889px;line-height:1.25;font-family:sans-serif;display:inline;fill:#fefefe;fill-opacity:1;stroke:none;stroke-width:0.264583"
       x="20.861099"
       y="67.915398"
       id="text16-0-8"><tspan
         sodipodi:role="line"
         id="tspan16-0-0"
         style="font-size:4.93889px;fill:#fefefe;fill-opacity:1;stroke-width:0.264583"
         x="20.861099"
         y="67.915398">Cr/Ti</tspan></text>
    <path
       id="rect5-2-1-9"
       style="display:inline;fill:#0e0a0a;fill-opacity:0.502164;stroke:none;stroke-width:0.264999;stroke-opacity:0"
       d="m 178.59376,63.013718 v 6.61458 h 13.22917 v -6.61458 z m 26.45833,0 v 6.61458 h 13.22918 v -6.61458 z m 26.45835,0 v 6.61458 h 13.22916 v -6.61458 z m 26.45833,0 v 6.61458 h 13.22916 v -6.61458 z" />
    <path
       id="rect6-6-5-1"
       style="display:inline;fill:#ffca3a;fill-opacity:0.980392;stroke:none;stroke-width:0.264999;stroke-opacity:0"
       d="m 178.59376,56.399128 v 6.61459 h 13.22917 v -6.61459 z m 26.45833,0 v 6.61459 h 13.22918 v -6.61459 z m 26.45835,0 v 6.61459 h 13.22916 v -6.61459 z m 26.45833,0 v 6.61459 h 13.22916 v -6.61459 z" />
    <text
       xml:space="preserve"
       style="font-style:normal;font-weight:normal;font-size:5.64444px;line-height:1.25;font-family:sans-serif;display:inline;fill:#000000;fill-opacity:1;stroke:none;stroke-width:0.264583"
       x="181.7233"
       y="61.723881"
       id="text15-4-6-8"><tspan
         sodipodi:role="line"
         id="tspan15-0-9-4"
         style="font-size:5.64444px;stroke-width:0.264583"
         x="181.7233"
         y="61.723881">Au</tspan></text>
    <text
       xml:space="preserve"
       style="font-style:normal;font-weight:normal;font-size:4.93889px;line-height:1.25;font-family:sans-serif;display:inline;fill:#fefefe;fill-opacity:1;stroke:none;stroke-width:0.264583"
       x="179.6111"
       y="67.915398"
       id="text16-0-8-0"><tspan
         sodipodi:role="line"
         id="tspan16-0-0-8"
         style="font-size:4.93889px;fill:#fefefe;fill-opacity:1;stroke-width:0.264583"
         x="179.6111"
         y="67.915398">Cr/Ti</tspan></text>
    <rect
       style="display:inline;fill:#1184cc;fill-opacity:0.631373;stroke:none;stroke-width:0.264999;stroke-opacity:0"
       id="rect2-3-6"
       width="105.83334"
       height="13.229167"
       x="330.72916"
       y="43.064575" />
    <text
       xml:space="preserve"
       style="font-style:normal;font-weight:normal;font-size:8.46667px;line-height:1.25;font-family:sans-serif;display:inline;fill:#000000;fill-opacity:1;stroke:none;stroke-width:0.264583"
       x="372.03104"
       y="52.761139"
       id="text14-8-6"><tspan
         sodipodi:role="line"
         id="tspan14-2-3"
         style="font-size:8.46667px;stroke-width:0.264583"
         x="372.03104"
         y="52.761139">MoS<tspan
   style="font-size:65%;baseline-shift:sub"
   id="tspan4">2</tspan></tspan></text>
    <path
       id="rect5-2-1-9-4"
       style="display:inline;fill:#0e0a0a;fill-opacity:0.502164;stroke:none;stroke-width:0.264999;stroke-opacity:0"
       d="m 337.34377,62.908307 v 6.61458 h 13.22917 v -6.61458 z m 26.45833,0 v 6.61458 h 13.22918 v -6.61458 z m 26.45835,0 v 6.61458 h 13.22916 v -6.61458 z m 26.45833,0 v 6.61458 h 13.22916 v -6.61458 z" />
    <path
       id="rect6-6-5-1-4"
       style="display:inline;fill:#ffca3a;fill-opacity:0.980392;stroke:none;stroke-width:0.264999;stroke-opacity:0"
       d="m 337.34377,56.293717 v 6.61459 h 13.22917 v -6.61459 z m 26.45833,0 v 6.61459 h 13.22918 v -6.61459 z m 26.45835,0 v 6.61459 h 13.22916 v -6.61459 z m 26.45833,0 v 6.61459 h 13.22916 v -6.61459 z" />
    <text
       xml:space="preserve"
       style="font-style:normal;font-weight:normal;font-size:5.64444px;line-height:1.25;font-family:sans-serif;display:inline;fill:#000000;fill-opacity:1;stroke:none;stroke-width:0.264583"
       x="340.4733"
       y="61.618473"
       id="text15-4-6-8-2"><tspan
         sodipodi:role="line"
         id="tspan15-0-9-4-9"
         style="font-size:5.64444px;stroke-width:0.264583"
         x="340.4733"
         y="61.618473">Au</tspan></text>
    <text
       xml:space="preserve"
       style="font-style:normal;font-weight:normal;font-size:4.93889px;line-height:1.25;font-family:sans-serif;display:inline;fill:#fefefe;fill-opacity:1;stroke:none;stroke-width:0.264583"
       x="338.36111"
       y="67.80999"
       id="text16-0-8-0-2"><tspan
         sodipodi:role="line"
         id="tspan16-0-0-8-8"
         style="font-size:4.93889px;fill:#fefefe;fill-opacity:1;stroke-width:0.264583"
         x="338.36111"
         y="67.80999">Cr/Ti</tspan></text>
    <path
       style="fill:none;stroke:#000000;stroke-width:1.14136;stroke-linecap:butt;stroke-linejoin:miter;stroke-dasharray:none;stroke-opacity:1;marker-end:url(#Triangle)"
       d="m 135.34699,66.11017 c 16.29463,0 16.29463,0 16.29463,0"
       id="path3" />
    <path
       style="fill:none;stroke:#000000;stroke-width:0.932588;stroke-linecap:butt;stroke-linejoin:miter;stroke-dasharray:0.932588, 1.86518;stroke-dashoffset:0;stroke-opacity:1;marker-end:url(#Triangle)"
       d="m 66.145832,33.072918 c 0,10.878742 0,10.878742 0,10.878742"
       id="path3-1" />
    <path
       style="fill:none;stroke:#000000;stroke-width:1.14136;stroke-linecap:butt;stroke-linejoin:miter;stroke-dasharray:none;stroke-opacity:1;marker-end:url(#Triangle-7)"
       d="m 294.097,66.110169 c 16.29464,0 16.29464,0 16.29464,0"
       id="path3-2" />
    <rect
       style="display:inline;fill:url(#linearGradient4);stroke:none;stroke-width:0.264999;stroke-opacity:0"
       id="rect1-52"
       width="132.29167"
       height="33.072918"
       x="317.5"
       y="69.522873"
       inkscape:label="sio2" />
    <text
       xml:space="preserve"
       style="font-style:normal;font-weight:normal;font-size:8.46667px;line-height:1.25;font-family:sans-serif;display:inline;fill:#000000;fill-opacity:1;stroke:none;stroke-width:0.264583"
       x="368.61215"
       y="82.570129"
       id="text12-9"><tspan
         sodipodi:role="line"
         style="font-size:8.46667px;stroke-width:0.264583"
         x="368.61215"
         y="82.570129"
         id="tspan13-0">Si/SiO<tspan
   style="font-size:65%;baseline-shift:sub"
   id="tspan5">2</tspan></tspan></text>
    <path
       id="path22"
       style="display:inline;fill:#8ac926;stroke-width:0.264916;stroke-opacity:0"
       d="M 383.64583,13.264307 A 66.145836,29.816561 0 0 0 317.5,43.081091 v 26.441797 h 13.22917 6.61458 V 56.30199 h -6.61458 V 43.081091 h 19.84375 13.22916 13.22917 13.22917 13.22916 13.22917 19.84375 v 13.212631 h -6.61458 v 13.229166 h 6.61458 13.22917 V 43.081091 a 66.145836,29.816561 0 0 0 -0.001,-0.01654 66.145836,29.816561 0 0 0 -66.1448,-29.800248 z m -33.07291,43.029415 v 13.229166 h 13.22916 V 56.293722 Z m 26.45833,0 v 13.229166 h 13.22917 V 56.293722 Z m 26.45833,0 v 13.229166 h 13.22917 V 56.293722 Z" />
    <text
       xml:space="preserve"
       style="font-style:normal;font-weight:normal;font-size:10.5833px;line-height:1.25;font-family:sans-serif;fill:#000000;fill-opacity:1;stroke:none;stroke-width:0.264583"
       x="355.79233"
       y="33.881634"
       id="text24"><tspan
         sodipodi:role="line"
         id="tspan24"
         style="stroke-width:0.264583"
         x="355.79233"
         y="33.881634">DEME-TFSI</tspan></text>
    <rect
       style="fill:#ff595e;stroke:none;stroke-width:2.76;stroke-dasharray:none;stroke-opacity:1;paint-order:stroke fill markers"
       id="rect5"
       width="111.10522"
       height="19.84375"
       x="10.593224"
       y="0" />
    <rect
       style="fill:#ff595e;stroke:none;stroke-width:2.76;stroke-dasharray:none;stroke-opacity:1;paint-order:stroke fill markers"
       id="rect5-1"
       width="111.10522"
       height="19.84375"
       x="169.34323"
       y="23.326246" />
    <text
       xml:space="preserve"
       style="font-style:normal;font-weight:normal;font-size:8.46667px;line-height:1.25;font-family:sans-serif;display:inline;fill:#000000;fill-opacity:1;stroke:none;stroke-width:0.264583"
       x="53.813766"
       y="-7.6314325"
       id="text14-8-0-8"><tspan
         sodipodi:role="line"
         style="font-size:8.46667px;stroke-width:0.264583"
         x="53.813766"
         y="-7.6314325"
         id="tspan6">PDMS</tspan></text>
    <text
       xml:space="preserve"
       style="font-style:normal;font-weight:normal;font-size:8.46667px;line-height:1.25;font-family:sans-serif;display:inline;fill:#000000;fill-opacity:1;stroke:none;stroke-width:0.264583"
       x="41.862034"
       y="13.078273"
       id="text14-8-0-8-2"><tspan
         sodipodi:role="line"
         style="font-size:8.46667px;stroke-width:0.264583"
         x="41.862034"
         y="13.078273"
         id="tspan6-4">Anthracene</tspan></text>
    <text
       xml:space="preserve"
       style="font-style:normal;font-weight:normal;font-size:8.46667px;line-height:1.25;font-family:sans-serif;display:inline;fill:#000000;fill-opacity:1;stroke:none;stroke-width:0.264583"
       x="199.81767"
       y="36.435516"
       id="text14-8-0-8-2-0"><tspan
         sodipodi:role="line"
         style="font-size:8.46667px;stroke-width:0.264583"
         x="199.81767"
         y="36.435516"
         id="tspan6-4-0">Anthracene</tspan></text>
  </g>
</svg>
